[gd_scene load_steps=4 format=2]

[ext_resource path="res://graphics/pusher32.png" type="Texture" id=1]
[ext_resource path="res://pusher.gd" type="Script" id=2]

[sub_resource type="RectangleShape2D" id=1]
extents = Vector2( 7, 7 )

[node name="pusher" type="Area2D"]
z_index = 8
collision_layer = 2147483655
collision_mask = 7
script = ExtResource( 2 )

[node name="Sprite" type="Sprite" parent="."]
scale = Vector2( 0.5, 0.5 )
texture = ExtResource( 1 )

[node name="collision" type="CollisionShape2D" parent="."]
shape = SubResource( 1 )
